%YAML 1.1
%TAG !u! tag:unity3d.com,2011:
--- !u!1045 &1
EditorBuildSettings:
  m_ObjectHideFlags: 0
  serializedVersion: 2
  m_Scenes:
  - enabled: 1
    path: Assets/0_FrostGateTest/Scenes/Levels/Level1.unity
    guid: 172855c0ffbe4a343a6f0f46a4db0846
  m_configObjects: {}
